C:\Users\Laroma\IdeaProjects\sample-project\src\main\java\fr\iiil\fp\romaric\functions\EleveLogger.java
C:\Users\Laroma\IdeaProjects\sample-project\src\main\java\fr\iiil\fp\romaric\entities\Personne.java
C:\Users\Laroma\IdeaProjects\sample-project\src\main\java\fr\iiil\fp\romaric\functions\PersonneCSVSupplier.java
C:\Users\Laroma\IdeaProjects\sample-project\src\main\java\fr\iiil\fp\romaric\functions\EleveSupplier.java
C:\Users\Laroma\IdeaProjects\sample-project\src\main\java\fr\iiil\fp\romaric\entities\Eleve.java
C:\Users\Laroma\IdeaProjects\sample-project\src\main\java\fr\iiil\fp\romaric\functions\MapEleveToNoteFunction.java
C:\Users\Laroma\IdeaProjects\sample-project\src\main\java\fr\iiil\fp\romaric\functions\MapLigneVersPersonne.java
C:\Users\Laroma\IdeaProjects\sample-project\src\main\java\fr\iiil\fp\romaric\Main.java
